<?xml version="1.0" encoding="utf-8"?>
<!-- Generator: Adobe Illustrator 16.0.1, SVG Export Plug-In . SVG Version: 6.00 Build 0)  -->
<!DOCTYPE svg PUBLIC "-//W3C//DTD SVG 1.1//EN" "http://www.w3.org/Graphics/SVG/1.1/DTD/svg11.dtd">
<svg version="1.1" id="All_glyphs" xmlns="http://www.w3.org/2000/svg" xmlns:xlink="http://www.w3.org/1999/xlink" x="0px" y="0px"
	 width="66.728px" height="69.999px" viewBox="0 0 66.728 69.999" enable-background="new 0 0 66.728 69.999" xml:space="preserve">
<path fill="#FFFFFF" d="M24.839,69.999c-2.176,0-4.234-1.018-5.557-2.764L1.414,43.639c-2.324-3.069-1.719-7.439,1.35-9.764
	c3.074-2.326,7.441-1.717,9.766,1.35l11.752,15.518L53.839,3.284c2.035-3.265,6.332-4.264,9.604-2.232
	c3.268,2.034,4.266,6.334,2.23,9.602l-34.916,56.06c-1.213,1.949-3.307,3.175-5.6,3.279C25.05,69.997,24.945,69.999,24.839,69.999z"
	/>
</svg>
